ben	basic		in	ben
ben	probhat		in	ben_probhat
dev	basic		in	deva
fi	basic		fi	classic
guj	basic		in	guj
gur	basic		in	guru
in	urd		in	urd-phonetic
kan	basic		in	kan
mal	basic		in	mal
ogham	basic		ie	ogam
ogham	is434		ie	ogam_is434
ori	basic		in	ori
ro	de		ro	winkeys
ro	us		ro	std
ro	academic	ro	std
ro	std_comma	ro	std
ro	comma		ro	basic
ru	os		ru	os_legacy
pk	urd		pk	urd-phonetic
syr	basic		sy	syc
syr	phonetic	sy	syc_phonetic
tel	basic		in	tel
ara	uga	ancient		uga	// Delete in 2028.
ir	ave	ancient		ave	// Delete in 2028.
